%YAML 1.1
%TAG !u! tag:unity3d.com,2011:
--- !u!162 &1
EditorUserSettings:
  m_ObjectHideFlags: 0
  serializedVersion: 4
  m_ConfigSettings:
    RecentlyUsedSceneGuid-0:
      value: 5106525757060c0e095c547541755944124f4d7f7f7027667e7d4d60e7e16c6f
      flags: 0
    RecentlyUsedSceneGuid-1:
      value: 53080254570150085b08547713205b4413164079747872632c2b4e66b6b73569
      flags: 0
    RecentlyUsedSceneGuid-2:
      value: 5a03070700535859555a5b7a45700c4443164d79797f71697a2f4b66e3e6326d
      flags: 0
    RecentlyUsedSceneGuid-3:
      value: 515250075c0c595e5f5a5e71122159444e4e4a2f7a7d7f602f284d66b4b76661
      flags: 0
    vcSharedLogLevel:
      value: 0d5e400f0650
      flags: 0
  m_VCAutomaticAdd: 1
  m_VCDebugCom: 0
  m_VCDebugCmd: 0
  m_VCDebugOut: 0
  m_SemanticMergeMode: 2
  m_DesiredImportWorkerCount: 2
  m_StandbyImportWorkerCount: 2
  m_IdleImportWorkerShutdownDelay: 60000
  m_VCShowFailedCheckout: 1
  m_VCOverwriteFailedCheckoutAssets: 1
  m_VCProjectOverlayIcons: 1
  m_VCHierarchyOverlayIcons: 1
  m_VCOtherOverlayIcons: 1
  m_VCAllowAsyncUpdate: 1
  m_ArtifactGarbageCollection: 1
